{
    "_id": "325468abv",
    "name": "CSS",
    "description": "Let's make our apps cool!",
    "price": 500,
    "slots": 18,
    "schedule": "7:09AM to 8:00AM",
    "instructor": "Ms. Cee",
    "isActive": true
}